{
  "count": 43,
  "next": "https://ll.thespacedevs.com/2.3.0/spacecraft_configurations/?limit=10&offset=10",
  "previous": null,
  "results": [
      {
          "response_mode": "normal",
          "id": 10,
          "url": "https://ll.thespacedevs.com/2.3.0/spacecraft_configurations/10/",
          "name": "Apollo Command/Service Module",
          "type": {
              "id": 2,
              "name": "Capsule"
          },
          "agency": {
              "response_mode": "list",
              "id": 999,
              "url": "https://ll.thespacedevs.com/2.3.0/agencies/999/",
              "name": "North American Aviation",
              "abbrev": "",
              "type": {
                  "id": 3,
                  "name": "Commercial"
              }
          },
          "family": [],
          "in_use": false,
          "image": {
              "id": 1902,
              "name": "[AUTO] Apollo Command/Service Module - image",
              "image_url": "https://thespacedevs-prod.nyc3.digitaloceanspaces.com/media/images/apollo2520command2fservice2520module_image_20190207032507.jpeg",
              "thumbnail_url": "https://thespacedevs-prod.nyc3.digitaloceanspaces.com/media/images/255bauto255d__image_thumbnail_20240305194107.jpeg",
              "credit": null,
              "license": {
                  "id": 1,
                  "name": "Unknown",
                  "priority": 9,
                  "link": null
              },
              "single_use": true,
              "variants": []
          }
      },
      {
          "response_mode": "normal",
          "id": 43,
          "url": "https://ll.thespacedevs.com/2.3.0/spacecraft_configurations/43/",
          "name": "Apollo Lunar Module",
          "type": {
              "id": 7,
              "name": "Lander"
          },
          "agency": {
              "response_mode": "list",
              "id": 44,
              "url": "https://ll.thespacedevs.com/2.3.0/agencies/44/",
              "name": "National Aeronautics and Space Administration",
              "abbrev": "NASA",
              "type": {
                  "id": 1,
                  "name": "Government"
              }
          },
          "family": [],
          "in_use": false,
          "image": {
              "id": 2089,
              "name": "Lunar Module on the Moon (Apollo 16)",
              "image_url": "https://thespacedevs-prod.nyc3.digitaloceanspaces.com/media/images/lunar_module_on_image_20240505074251.jpeg",
              "thumbnail_url": "https://thespacedevs-prod.nyc3.digitaloceanspaces.com/media/images/lunar_module_on_image_thumbnail_20240505074252.jpeg",
              "credit": "NASA / Apollo 16 astronauts",
              "license": {
                  "id": 4,
                  "name": "NASA Image and Media Guidelines",
                  "priority": 0,
                  "link": "https://www.nasa.gov/nasa-brand-center/images-and-media/"
              },
              "single_use": true,
              "variants": []
          }
      },
      {
          "response_mode": "normal",
          "id": 17,
          "url": "https://ll.thespacedevs.com/2.3.0/spacecraft_configurations/17/",
          "name": "Automated Transfer Vehicle (ATV)",
          "type": {
              "id": 4,
              "name": "Cargo Resupply"
          },
          "agency": {
              "response_mode": "list",
              "id": 115,
              "url": "https://ll.thespacedevs.com/2.3.0/agencies/115/",
              "name": "Arianespace",
              "abbrev": "ASA",
              "type": {
                  "id": 3,
                  "name": "Commercial"
              }
          },
          "family": [],
          "in_use": false,
          "image": {
              "id": 1903,
              "name": "Automated Transfer Vehicle (ATV)",
              "image_url": "https://thespacedevs-prod.nyc3.digitaloceanspaces.com/media/images/automated_trans_image_20231118111716.jpeg",
              "thumbnail_url": "https://thespacedevs-prod.nyc3.digitaloceanspaces.com/media/images/255bauto255d__image_thumbnail_20240305194109.jpeg",
              "credit": "NASA",
              "license": {
                  "id": 4,
                  "name": "NASA Image and Media Guidelines",
                  "priority": 0,
                  "link": "https://www.nasa.gov/nasa-brand-center/images-and-media/"
              },
              "single_use": true,
              "variants": []
          }
      },
      {
          "response_mode": "normal",
          "id": 28,
          "url": "https://ll.thespacedevs.com/2.3.0/spacecraft_configurations/28/",
          "name": "Buran",
          "type": {
              "id": 3,
              "name": "Spaceplane"
          },
          "agency": {
              "response_mode": "list",
              "id": 63,
              "url": "https://ll.thespacedevs.com/2.3.0/agencies/63/",
              "name": "Russian Federal Space Agency (ROSCOSMOS)",
              "abbrev": "RFSA",
              "type": {
                  "id": 1,
                  "name": "Government"
              }
          },
          "family": [],
          "in_use": false,
          "image": {
              "id": 1904,
              "name": "[AUTO] Buran - image",
              "image_url": "https://thespacedevs-prod.nyc3.digitaloceanspaces.com/media/images/buran_image_20210902151254.jpg",
              "thumbnail_url": "https://thespacedevs-prod.nyc3.digitaloceanspaces.com/media/images/255bauto255d__image_thumbnail_20240305194110.jpeg",
              "credit": null,
              "license": {
                  "id": 1,
                  "name": "Unknown",
                  "priority": 9,
                  "link": null
              },
              "single_use": true,
              "variants": []
          }
      },
      {
          "response_mode": "normal",
          "id": 7,
          "url": "https://ll.thespacedevs.com/2.3.0/spacecraft_configurations/7/",
          "name": "Cargo Dragon 2",
          "type": {
              "id": 2,
              "name": "Capsule"
          },
          "agency": {
              "response_mode": "list",
              "id": 121,
              "url": "https://ll.thespacedevs.com/2.3.0/agencies/121/",
              "name": "SpaceX",
              "abbrev": "SpX",
              "type": {
                  "id": 3,
                  "name": "Commercial"
              }
          },
          "family": [
              {
                  "response_mode": "normal",
                  "id": 6,
                  "name": "Dragon",
                  "description": "Dragon is a family of spacecraft developed and produced by American private space transportation company SpaceX.",
                  "manufacturer": {
                      "response_mode": "list",
                      "id": 121,
                      "url": "https://ll.thespacedevs.com/2.3.0/agencies/121/",
                      "name": "SpaceX",
                      "abbrev": "SpX",
                      "type": {
                          "id": 3,
                          "name": "Commercial"
                      }
                  },
                  "parent": null,
                  "maiden_flight": "2010-12-08"
              },
              {
                  "response_mode": "normal",
                  "id": 7,
                  "name": "Dragon 2",
                  "description": "Dragon 2 is a family of spacecraft developed and produced by American private space transportation company SpaceX. It was redesigned for human spaceflight, and is capable of docking to the ISS.",
                  "manufacturer": {
                      "response_mode": "list",
                      "id": 121,
                      "url": "https://ll.thespacedevs.com/2.3.0/agencies/121/",
                      "name": "SpaceX",
                      "abbrev": "SpX",
                      "type": {
                          "id": 3,
                          "name": "Commercial"
                      }
                  },
                  "parent": {
                      "response_mode": "list",
                      "id": 6,
                      "name": "Dragon"
                  },
                  "maiden_flight": "2019-03-02"
              }
          ],
          "in_use": true,
          "image": {
              "id": 1086,
              "name": "Cargo Dragon docking",
              "image_url": "https://thespacedevs-prod.nyc3.digitaloceanspaces.com/media/images/crs-28_dragon_d_image_20230530191602.jpeg",
              "thumbnail_url": "https://thespacedevs-prod.nyc3.digitaloceanspaces.com/media/images/255bauto255d__image_thumbnail_20240305191606.jpeg",
              "credit": "NASA",
              "license": {
                  "id": 4,
                  "name": "NASA Image and Media Guidelines",
                  "priority": 0,
                  "link": "https://www.nasa.gov/nasa-brand-center/images-and-media/"
              },
              "single_use": false,
              "variants": []
          }
      },
      {
          "response_mode": "normal",
          "id": 31,
          "url": "https://ll.thespacedevs.com/2.3.0/spacecraft_configurations/31/",
          "name": "Chinese reusable spacecraft",
          "type": {
              "id": 3,
              "name": "Spaceplane"
          },
          "agency": {
              "response_mode": "list",
              "id": 88,
              "url": "https://ll.thespacedevs.com/2.3.0/agencies/88/",
              "name": "China Aerospace Science and Technology Corporation",
              "abbrev": "CASC",
              "type": {
                  "id": 1,
                  "name": "Government"
              }
          },
          "family": [],
          "in_use": true,
          "image": null
      },
      {
          "response_mode": "normal",
          "id": 22,
          "url": "https://ll.thespacedevs.com/2.3.0/spacecraft_configurations/22/",
          "name": "Crew Capsule 1",
          "type": {
              "id": 2,
              "name": "Capsule"
          },
          "agency": {
              "response_mode": "list",
              "id": 141,
              "url": "https://ll.thespacedevs.com/2.3.0/agencies/141/",
              "name": "Blue Origin",
              "abbrev": "BO",
              "type": {
                  "id": 3,
                  "name": "Commercial"
              }
          },
          "family": [
              {
                  "response_mode": "normal",
                  "id": 5,
                  "name": "New Shepard Crew Capsule",
                  "description": "Capsules built for suborbital human spaceflight on New Shepard",
                  "manufacturer": {
                      "response_mode": "list",
                      "id": 141,
                      "url": "https://ll.thespacedevs.com/2.3.0/agencies/141/",
                      "name": "Blue Origin",
                      "abbrev": "BO",
                      "type": {
                          "id": 3,
                          "name": "Commercial"
                      }
                  },
                  "parent": null,
                  "maiden_flight": "2015-04-29"
              }
          ],
          "in_use": false,
          "image": {
              "id": 1906,
              "name": "[AUTO] Crew Capsule 1 - image",
              "image_url": "https://thespacedevs-prod.nyc3.digitaloceanspaces.com/media/images/crew2520capsule25201_image_20190309100308.jpg",
              "thumbnail_url": "https://thespacedevs-prod.nyc3.digitaloceanspaces.com/media/images/255bauto255d__image_thumbnail_20240305194113.jpeg",
              "credit": null,
              "license": {
                  "id": 1,
                  "name": "Unknown",
                  "priority": 9,
                  "link": null
              },
              "single_use": true,
              "variants": []
          }
      },
      {
          "response_mode": "normal",
          "id": 21,
          "url": "https://ll.thespacedevs.com/2.3.0/spacecraft_configurations/21/",
          "name": "Crew Capsule 2.0",
          "type": {
              "id": 2,
              "name": "Capsule"
          },
          "agency": {
              "response_mode": "list",
              "id": 141,
              "url": "https://ll.thespacedevs.com/2.3.0/agencies/141/",
              "name": "Blue Origin",
              "abbrev": "BO",
              "type": {
                  "id": 3,
                  "name": "Commercial"
              }
          },
          "family": [
              {
                  "response_mode": "normal",
                  "id": 5,
                  "name": "New Shepard Crew Capsule",
                  "description": "Capsules built for suborbital human spaceflight on New Shepard",
                  "manufacturer": {
                      "response_mode": "list",
                      "id": 141,
                      "url": "https://ll.thespacedevs.com/2.3.0/agencies/141/",
                      "name": "Blue Origin",
                      "abbrev": "BO",
                      "type": {
                          "id": 3,
                          "name": "Commercial"
                      }
                  },
                  "parent": null,
                  "maiden_flight": "2015-04-29"
              }
          ],
          "in_use": true,
          "image": {
              "id": 1907,
              "name": "New Shepard M7 H. G. Wells landed",
              "image_url": "https://thespacedevs-prod.nyc3.digitaloceanspaces.com/media/images/crew2520capsule25202.0_image_20190309095011.jpeg",
              "thumbnail_url": "https://thespacedevs-prod.nyc3.digitaloceanspaces.com/media/images/255bauto255d__image_thumbnail_20240305194115.jpeg",
              "credit": "Blue Origin",
              "license": {
                  "id": 1,
                  "name": "Unknown",
                  "priority": 9,
                  "link": null
              },
              "single_use": true,
              "variants": []
          }
      },
      {
          "response_mode": "normal",
          "id": 6,
          "url": "https://ll.thespacedevs.com/2.3.0/spacecraft_configurations/6/",
          "name": "Crew Dragon 2",
          "type": {
              "id": 2,
              "name": "Capsule"
          },
          "agency": {
              "response_mode": "list",
              "id": 121,
              "url": "https://ll.thespacedevs.com/2.3.0/agencies/121/",
              "name": "SpaceX",
              "abbrev": "SpX",
              "type": {
                  "id": 3,
                  "name": "Commercial"
              }
          },
          "family": [
              {
                  "response_mode": "normal",
                  "id": 6,
                  "name": "Dragon",
                  "description": "Dragon is a family of spacecraft developed and produced by American private space transportation company SpaceX.",
                  "manufacturer": {
                      "response_mode": "list",
                      "id": 121,
                      "url": "https://ll.thespacedevs.com/2.3.0/agencies/121/",
                      "name": "SpaceX",
                      "abbrev": "SpX",
                      "type": {
                          "id": 3,
                          "name": "Commercial"
                      }
                  },
                  "parent": null,
                  "maiden_flight": "2010-12-08"
              },
              {
                  "response_mode": "normal",
                  "id": 7,
                  "name": "Dragon 2",
                  "description": "Dragon 2 is a family of spacecraft developed and produced by American private space transportation company SpaceX. It was redesigned for human spaceflight, and is capable of docking to the ISS.",
                  "manufacturer": {
                      "response_mode": "list",
                      "id": 121,
                      "url": "https://ll.thespacedevs.com/2.3.0/agencies/121/",
                      "name": "SpaceX",
                      "abbrev": "SpX",
                      "type": {
                          "id": 3,
                          "name": "Commercial"
                      }
                  },
                  "parent": {
                      "response_mode": "list",
                      "id": 6,
                      "name": "Dragon"
                  },
                  "maiden_flight": "2019-03-02"
              }
          ],
          "in_use": true,
          "image": {
              "id": 1181,
              "name": "Crew Dragon docking",
              "image_url": "https://thespacedevs-prod.nyc3.digitaloceanspaces.com/media/images/spacex_dm-2_cre_image_20200504065311.jpeg",
              "thumbnail_url": "https://thespacedevs-prod.nyc3.digitaloceanspaces.com/media/images/255bauto255d__image_thumbnail_20240305191923.jpeg",
              "credit": "NASA",
              "license": {
                  "id": 4,
                  "name": "NASA Image and Media Guidelines",
                  "priority": 0,
                  "link": "https://www.nasa.gov/nasa-brand-center/images-and-media/"
              },
              "single_use": false,
              "variants": []
          }
      },
      {
          "response_mode": "normal",
          "id": 9,
          "url": "https://ll.thespacedevs.com/2.3.0/spacecraft_configurations/9/",
          "name": "CST-100 Starliner",
          "type": {
              "id": 2,
              "name": "Capsule"
          },
          "agency": {
              "response_mode": "list",
              "id": 80,
              "url": "https://ll.thespacedevs.com/2.3.0/agencies/80/",
              "name": "Boeing",
              "abbrev": "BA",
              "type": {
                  "id": 3,
                  "name": "Commercial"
              }
          },
          "family": [],
          "in_use": true,
          "image": {
              "id": 1020,
              "name": "Boeing Starliner in orbit (OFT-2)",
              "image_url": "https://thespacedevs-prod.nyc3.digitaloceanspaces.com/media/images/boeing_starline_image_20220525180700.jpeg",
              "thumbnail_url": "https://thespacedevs-prod.nyc3.digitaloceanspaces.com/media/images/255bauto255d__image_thumbnail_20240305191414.jpeg",
              "credit": "NASA",
              "license": {
                  "id": 4,
                  "name": "NASA Image and Media Guidelines",
                  "priority": 0,
                  "link": "https://www.nasa.gov/nasa-brand-center/images-and-media/"
              },
              "single_use": false,
              "variants": []
          }
      }
  ]
}